{
	"info": {
		"_postman_id": "f93297fe-c8d2-480b-b012-03b853259986",
		"name": "to-do Collection",
		"schema": "https://schema.getpostman.com/json/collection/v2.1.0/collection.json",
		"_exporter_id": "21220339"
	},
	"item": [
		{
			"name": "POST create task",
			"request": {
				"method": "POST",
				"header": [],
				"body": {
					"mode": "raw",
					"raw": "{\r\n    \"name\":\"Drink\"\r\n}",
					"options": {
						"raw": {
							"language": "json"
						}
					}
				},
				"url": {
					"raw": "localhost:3001/tasks",
					"host": [
						"localhost"
					],
					"port": "3001",
					"path": [
						"tasks"
					]
				}
			},
			"response": []
		},
		{
			"name": "GET task",
			"request": {
				"method": "GET",
				"header": [],
				"url": {
					"raw": "localhost:3001",
					"host": [
						"localhost"
					],
					"port": "3001"
				}
			},
			"response": []
		},
		{
			"name": "GET all task",
			"request": {
				"method": "GET",
				"header": [],
				"url": {
					"raw": "localhost:3001/tasks",
					"host": [
						"localhost"
					],
					"port": "3001",
					"path": [
						"tasks"
					]
				}
			},
			"response": []
		},
		{
			"name": "POST signup request",
			"request": {
				"method": "POST",
				"header": [],
				"body": {
					"mode": "raw",
					"raw": "{\r\n    \"username\":\"john\",\r\n    \"password\":\"johndoe\"\r\n}",
					"options": {
						"raw": {
							"language": "json"
						}
					}
				},
				"url": {
					"raw": "localhost:3001/signup",
					"host": [
						"localhost"
					],
					"port": "3001",
					"path": [
						"signup"
					]
				}
			},
			"response": []
		}
	]
}